{
  "classes": [
    {
      "type_name": "单口相声",
      "type_id": "单口相声"
    },
    {
      "type_name": "群口相声",
      "type_id": "群口相声"
    },
    {
      "type_name": "德云社",
      "type_id": "德云社"
    },
    {
      "type_name": "青曲社",
      "type_id": "青曲社"
    },
    {
      "type_name": "郭德纲",
      "type_id": "郭德纲"
    },
   {
      "type_name": "岳云鹏",
      "type_id": "岳云鹏"
    },
    
    {
      "type_name": "曹云金",
      "type_id": "曹云金"
    },
 {
      "type_name": "评书",
      "type_id": "评书"
    },
     {
      "type_name": "小曲",
      "type_id": "小区"
    },
    
    {
      "type_name": "二人转",
      "type_id": "二人转"
    },
 {
      "type_name": "春晚小品",
      "type_id": "春晚小品"
    },
          {
            "type_name": "赵本山",
            "type_id": "赵本山"
          },
          {
            "type_name": "陈佩斯",
            "type_id": "陈佩斯"
          },
          {
            "type_name": "冯巩",
            "type_id": "冯巩"
          },
          {
            "type_name": "宋小宝",
            "type_id": "宋小宝"
          },
          {
            "type_name": "赵丽蓉",
            "type_id": "赵丽蓉"
          },
          {
            "type_name": "郭达",
            "type_id": "郭达"
          },
          {
            "type_name": "潘长江",
            "type_id": "潘长江"
          },
          {
            "type_name": "郭冬临",
            "type_id": "郭冬临"
          },
          {
            "type_name": "严顺开",
            "type_id": "严顺开"
          },
          {
            "type_name": "文松",
            "type_id": "文松"
          },
          {
            "type_name": "开心麻花",
            "type_id": "开心麻花"
          },
          {
            "type_name": "屌丝男士",
            "type_id": "屌丝男士"
          },
          {
            "type_name": "喜剧综艺",
            "type_id": "喜剧综艺"
          }	
  ],
  "cookie": "buvid3=F392F2AD-7D2E-27B4-D950-6A0450DB9E8C48535infoc; bmg_af_switch=1; bmg_src_def_domain=i2.hdslb.com; b_lsid=3795101010F_18DA3F7E814; _uuid=E4F41EE1-3766-C93C-BB4D-F7B2929474BA49551infoc; buvid4=383A407B-EDFA-D8DA-DFE6-F277DB9A2A4149689-124021319-o+0zHnNZMXJOjYKtADJ+SQ%3D%3D; buvid_fp=2199d42ba1c9e6e9c7bf4775b77d7c78; b_nut=100; rpdid=|(J|YulkmkJJ0J'u~|~)lkmYk; SESSDATA=91e1dc08%2C1723405187%2C7d4b1%2A22CjCGSSL9FAO8DbTaaA-l53QHqB6Of61er3FsVtvr7eqG5cI881iTmU2oupDhzFGV98ASVmlTeFYtanpESzVMcTBjWmlCZ3hSUDRTbkhaQ2g1TGMxUFlMRUpmMW5qdTUzenN5ZU1vRi1rb1FnRnpKUUt0SjFVS1VCVjZSenJ1NTh1UGxubXgyQnBBIIEC; bili_jct=7ba4ebbe6a9f2c498b3d6682dbc7f933; DedeUserID=662660846; DedeUserID__ckMd5=bc5266c1e183ce79; sid=66osi14f" 
}